^C:\USERS\WOLFGD\DOCUMENTS\VISUAL STUDIO 2013\PROJECTS\PAG15\PAG15\CAMERA.CPP
/c /ZI /nologo /W3 /WX- /sdl /Od /Oy- /D WIN32 /D _DEBUG /D _CONSOLE /D _LIB /D _UNICODE /D UNICODE /Gm /EHsc /RTC1 /MDd /GS /fp:precise /Zc:wchar_t /Zc:forScope /Fo"DEBUG\\" /Fd"DEBUG\VC120.PDB" /Gd /TP /analyze- C:\USERS\WOLFGD\DOCUMENTS\VISUAL STUDIO 2013\PROJECTS\PAG15\PAG15\CAMERA.CPP
^C:\USERS\WOLFGD\DOCUMENTS\VISUAL STUDIO 2013\PROJECTS\PAG15\PAG15\GLOBALS.CPP
/c /ZI /nologo /W3 /WX- /sdl /Od /Oy- /D WIN32 /D _DEBUG /D _CONSOLE /D _LIB /D _UNICODE /D UNICODE /Gm /EHsc /RTC1 /MDd /GS /fp:precise /Zc:wchar_t /Zc:forScope /Fo"DEBUG\\" /Fd"DEBUG\VC120.PDB" /Gd /TP /analyze- C:\USERS\WOLFGD\DOCUMENTS\VISUAL STUDIO 2013\PROJECTS\PAG15\PAG15\GLOBALS.CPP
^C:\USERS\WOLFGD\DOCUMENTS\VISUAL STUDIO 2013\PROJECTS\PAG15\PAG15\MAIN.CPP
/c /ZI /nologo /W3 /WX- /sdl /Od /Oy- /D WIN32 /D _DEBUG /D _CONSOLE /D _LIB /D _UNICODE /D UNICODE /Gm /EHsc /RTC1 /MDd /GS /fp:precise /Zc:wchar_t /Zc:forScope /Fo"DEBUG\\" /Fd"DEBUG\VC120.PDB" /Gd /TP /analyze- C:\USERS\WOLFGD\DOCUMENTS\VISUAL STUDIO 2013\PROJECTS\PAG15\PAG15\MAIN.CPP
^C:\USERS\WOLFGD\DOCUMENTS\VISUAL STUDIO 2013\PROJECTS\PAG15\PAG15\MESH.CPP
/c /ZI /nologo /W3 /WX- /sdl /Od /Oy- /D WIN32 /D _DEBUG /D _CONSOLE /D _LIB /D _UNICODE /D UNICODE /Gm /EHsc /RTC1 /MDd /GS /fp:precise /Zc:wchar_t /Zc:forScope /Fo"DEBUG\\" /Fd"DEBUG\VC120.PDB" /Gd /TP /analyze- C:\USERS\WOLFGD\DOCUMENTS\VISUAL STUDIO 2013\PROJECTS\PAG15\PAG15\MESH.CPP
^C:\USERS\WOLFGD\DOCUMENTS\VISUAL STUDIO 2013\PROJECTS\PAG15\PAG15\PROGRAM.CPP
/c /ZI /nologo /W3 /WX- /sdl /Od /Oy- /D WIN32 /D _DEBUG /D _CONSOLE /D _LIB /D _UNICODE /D UNICODE /Gm /EHsc /RTC1 /MDd /GS /fp:precise /Zc:wchar_t /Zc:forScope /Fo"DEBUG\\" /Fd"DEBUG\VC120.PDB" /Gd /TP /analyze- C:\USERS\WOLFGD\DOCUMENTS\VISUAL STUDIO 2013\PROJECTS\PAG15\PAG15\PROGRAM.CPP
^C:\USERS\WOLFGD\DOCUMENTS\VISUAL STUDIO 2013\PROJECTS\PAG15\PAG15\TRANSFORM.CPP
/c /ZI /nologo /W3 /WX- /sdl /Od /Oy- /D WIN32 /D _DEBUG /D _CONSOLE /D _LIB /D _UNICODE /D UNICODE /Gm /EHsc /RTC1 /MDd /GS /fp:precise /Zc:wchar_t /Zc:forScope /Fo"DEBUG\\" /Fd"DEBUG\VC120.PDB" /Gd /TP /analyze- C:\USERS\WOLFGD\DOCUMENTS\VISUAL STUDIO 2013\PROJECTS\PAG15\PAG15\TRANSFORM.CPP
^C:\USERS\WOLFGD\DOCUMENTS\VISUAL STUDIO 2013\PROJECTS\PAG15\PAG15\OBJECT3D.CPP
/c /ZI /nologo /W3 /WX- /sdl /Od /Oy- /D WIN32 /D _DEBUG /D _CONSOLE /D _LIB /D _UNICODE /D UNICODE /Gm /EHsc /RTC1 /MDd /GS /fp:precise /Zc:wchar_t /Zc:forScope /Fo"DEBUG\\" /Fd"DEBUG\VC120.PDB" /Gd /TP /analyze- C:\USERS\WOLFGD\DOCUMENTS\VISUAL STUDIO 2013\PROJECTS\PAG15\PAG15\OBJECT3D.CPP
