^C:\USERS\WOLFGD\DOCUMENTS\VISUAL STUDIO 2013\PROJECTS\PAG15\PAG15\CAMERA.CPP|C:\USERS\WOLFGD\DOCUMENTS\VISUAL STUDIO 2013\PROJECTS\PAG15\PAG15\GLOBALS.CPP|C:\USERS\WOLFGD\DOCUMENTS\VISUAL STUDIO 2013\PROJECTS\PAG15\PAG15\MAIN.CPP|C:\USERS\WOLFGD\DOCUMENTS\VISUAL STUDIO 2013\PROJECTS\PAG15\PAG15\MESH.CPP|C:\USERS\WOLFGD\DOCUMENTS\VISUAL STUDIO 2013\PROJECTS\PAG15\PAG15\OBJECT3D.CPP|C:\USERS\WOLFGD\DOCUMENTS\VISUAL STUDIO 2013\PROJECTS\PAG15\PAG15\PROGRAM.CPP|C:\USERS\WOLFGD\DOCUMENTS\VISUAL STUDIO 2013\PROJECTS\PAG15\PAG15\TRANSFORM.CPP
C:\USERS\WOLFGD\DOCUMENTS\VISUAL STUDIO 2013\PROJECTS\PAG15\PAG15\DEBUG\VC120.PDB
C:\USERS\WOLFGD\DOCUMENTS\VISUAL STUDIO 2013\PROJECTS\PAG15\PAG15\DEBUG\VC120.IDB
C:\USERS\WOLFGD\DOCUMENTS\VISUAL STUDIO 2013\PROJECTS\PAG15\PAG15\DEBUG\CAMERA.OBJ
C:\USERS\WOLFGD\DOCUMENTS\VISUAL STUDIO 2013\PROJECTS\PAG15\PAG15\DEBUG\GLOBALS.OBJ
C:\USERS\WOLFGD\DOCUMENTS\VISUAL STUDIO 2013\PROJECTS\PAG15\PAG15\DEBUG\MAIN.OBJ
C:\USERS\WOLFGD\DOCUMENTS\VISUAL STUDIO 2013\PROJECTS\PAG15\PAG15\DEBUG\MESH.OBJ
C:\USERS\WOLFGD\DOCUMENTS\VISUAL STUDIO 2013\PROJECTS\PAG15\PAG15\DEBUG\PROGRAM.OBJ
C:\USERS\WOLFGD\DOCUMENTS\VISUAL STUDIO 2013\PROJECTS\PAG15\PAG15\DEBUG\TRANSFORM.OBJ
C:\USERS\WOLFGD\DOCUMENTS\VISUAL STUDIO 2013\PROJECTS\PAG15\PAG15\DEBUG\OBJECT3D.OBJ
^C:\USERS\WOLFGD\DOCUMENTS\VISUAL STUDIO 2013\PROJECTS\PAG15\PAG15\CAMERA.CPP
C:\USERS\WOLFGD\DOCUMENTS\VISUAL STUDIO 2013\PROJECTS\PAG15\PAG15\DEBUG\VC120.PDB
^C:\USERS\WOLFGD\DOCUMENTS\VISUAL STUDIO 2013\PROJECTS\PAG15\PAG15\GLOBALS.CPP
C:\USERS\WOLFGD\DOCUMENTS\VISUAL STUDIO 2013\PROJECTS\PAG15\PAG15\DEBUG\VC120.PDB
^C:\USERS\WOLFGD\DOCUMENTS\VISUAL STUDIO 2013\PROJECTS\PAG15\PAG15\MAIN.CPP
C:\USERS\WOLFGD\DOCUMENTS\VISUAL STUDIO 2013\PROJECTS\PAG15\PAG15\DEBUG\VC120.PDB
^C:\USERS\WOLFGD\DOCUMENTS\VISUAL STUDIO 2013\PROJECTS\PAG15\PAG15\MESH.CPP
C:\USERS\WOLFGD\DOCUMENTS\VISUAL STUDIO 2013\PROJECTS\PAG15\PAG15\DEBUG\VC120.PDB
^C:\USERS\WOLFGD\DOCUMENTS\VISUAL STUDIO 2013\PROJECTS\PAG15\PAG15\PROGRAM.CPP
C:\USERS\WOLFGD\DOCUMENTS\VISUAL STUDIO 2013\PROJECTS\PAG15\PAG15\DEBUG\VC120.PDB
C:\USERS\WOLFGD\DOCUMENTS\VISUAL STUDIO 2013\PROJECTS\PAG15\PAG15\DEBUG\VC120.IDB
C:\USERS\WOLFGD\DOCUMENTS\VISUAL STUDIO 2013\PROJECTS\PAG15\PAG15\DEBUG\PROGRAM.OBJ
^C:\USERS\WOLFGD\DOCUMENTS\VISUAL STUDIO 2013\PROJECTS\PAG15\PAG15\TRANSFORM.CPP
C:\USERS\WOLFGD\DOCUMENTS\VISUAL STUDIO 2013\PROJECTS\PAG15\PAG15\DEBUG\VC120.PDB
^C:\USERS\WOLFGD\DOCUMENTS\VISUAL STUDIO 2013\PROJECTS\PAG15\PAG15\OBJECT3D.CPP
C:\USERS\WOLFGD\DOCUMENTS\VISUAL STUDIO 2013\PROJECTS\PAG15\PAG15\DEBUG\VC120.PDB
^C:\USERS\WOLFGD\DOCUMENTS\VISUAL STUDIO 2013\PROJECTS\PAG15\PAG15\MAIN.CPP|C:\USERS\WOLFGD\DOCUMENTS\VISUAL STUDIO 2013\PROJECTS\PAG15\PAG15\PROGRAM.CPP
C:\USERS\WOLFGD\DOCUMENTS\VISUAL STUDIO 2013\PROJECTS\PAG15\PAG15\DEBUG\VC120.PDB
C:\USERS\WOLFGD\DOCUMENTS\VISUAL STUDIO 2013\PROJECTS\PAG15\PAG15\DEBUG\VC120.IDB
C:\USERS\WOLFGD\DOCUMENTS\VISUAL STUDIO 2013\PROJECTS\PAG15\PAG15\DEBUG\MAIN.OBJ
